[gd_scene load_steps=4 format=2]

[ext_resource path="res://GUI/Menu/MultiplayerLoadingScreen/MultiplayerLoadingScreen.gd" type="Script" id=1]
[ext_resource path="res://GUI/Themes/MainTheme.tres" type="Theme" id=2]
[ext_resource path="res://GUI/Menu/MultiplayerLoadingScreen/LoadingLabel.gd" type="Script" id=3]

[node name="MultiplayerLoadingScreen" type="MarginContainer"]
anchor_right = 1.0
anchor_bottom = 1.0
script = ExtResource( 1 )

[node name="VBoxContainer" type="VBoxContainer" parent="."]
margin_top = 476.0
margin_right = 1024.0
margin_bottom = 548.0
size_flags_vertical = 4

[node name="LoadingLabel" type="Label" parent="VBoxContainer"]
margin_right = 1024.0
margin_bottom = 72.0
theme = ExtResource( 2 )
text = "LABEL_CONNECTING_TO_SERVER"
align = 1
valign = 1
autowrap = true
script = ExtResource( 3 )
