[gd_scene load_steps=3 format=2]

[ext_resource path="res://Player/BasePlayer/BasePlayer.tscn" type="PackedScene" id=1]
[ext_resource path="res://Player/MultiPlayer/MultiPlayer.gd" type="Script" id=2]

[node name="BasePlayer" instance=ExtResource( 1 )]
script = ExtResource( 2 )
