[gd_scene load_steps=4 format=2]

[ext_resource path="res://Items/BaseItem/BaseItem.tscn" type="PackedScene" id=1]
[ext_resource path="res://Items/PlayerItem/PlayerItem.gd" type="Script" id=2]
[ext_resource path="res://Items/PlayerItem/Graphics/NormalItem.png" type="Texture" id=3]

[node name="PlayerItem" instance=ExtResource( 1 )]
collision_layer = 0
collision_mask = 0
mode = 1
script = ExtResource( 2 )

[node name="Sprite" parent="." index="0"]
texture = ExtResource( 3 )
